module genexAPIDemo

go 1.14

require github.com/astaxie/beego v1.12.1

require (
	github.com/shiena/ansicolor v0.0.0-20200904210342-c7312218db18 // indirect
	github.com/smartystreets/goconvey v1.6.4
)
